EDA Netlist Writer report for capt_i2c_temp
Fri Jan 19 13:03:34 2018
Quartus II 64-Bit Version 13.0.0 Build 156 04/24/2013 SJ Full Version


---------------------
; Table of Contents ;
---------------------
  1. Legal Notice
  2. EDA Netlist Writer Summary
  3. Simulation Settings
  4. Simulation Generated Files
  5. EDA Netlist Writer Messages



----------------
; Legal Notice ;
----------------
Copyright (C) 1991-2013 Altera Corporation
Your use of Altera Corporation's design tools, logic functions 
and other software and tools, and its AMPP partner logic 
functions, and any output files from any of the foregoing 
(including device programming or simulation files), and any 
associated documentation or information are expressly subject 
to the terms and conditions of the Altera Program License 
Subscription Agreement, Altera MegaCore Function License 
Agreement, or other applicable license agreement, including, 
without limitation, that your use is for the sole purpose of 
programming logic devices manufactured by Altera and sold by 
Altera or its authorized distributors.  Please refer to the 
applicable agreement for further details.



+-------------------------------------------------------------------+
; EDA Netlist Writer Summary                                        ;
+---------------------------+---------------------------------------+
; EDA Netlist Writer Status ; Successful - Fri Jan 19 13:03:34 2018 ;
; Revision Name             ; capt_i2c_temp                         ;
; Top-level Entity Name     ; CapT_I2C_top                          ;
; Family                    ; MAX V                                 ;
; Simulation Files Creation ; Successful                            ;
+---------------------------+---------------------------------------+


+----------------------------------------------------------------------------------------------------------------------+
; Simulation Settings                                                                                                  ;
+---------------------------------------------------------------------------------------------------+------------------+
; Option                                                                                            ; Setting          ;
+---------------------------------------------------------------------------------------------------+------------------+
; Tool Name                                                                                         ; QuestaSim (VHDL) ;
; Generate netlist for functional simulation only                                                   ; Off              ;
; Time scale                                                                                        ; 1 ps             ;
; Truncate long hierarchy paths                                                                     ; Off              ;
; Map illegal HDL characters                                                                        ; Off              ;
; Flatten buses into individual nodes                                                               ; Off              ;
; Maintain hierarchy                                                                                ; Off              ;
; Bring out device-wide set/reset signals as ports                                                  ; Off              ;
; Enable glitch filtering                                                                           ; Off              ;
; Do not write top level VHDL entity                                                                ; Off              ;
; Disable detection of setup and hold time violations in the input registers of bi-directional pins ; Off              ;
; Architecture name in VHDL output netlist                                                          ; structure        ;
; Generate third-party EDA tool command script for RTL functional simulation                        ; Off              ;
; Generate third-party EDA tool command script for gate-level simulation                            ; Off              ;
+---------------------------------------------------------------------------------------------------+------------------+


+------------------------------------------------------------------------------------------+
; Simulation Generated Files                                                               ;
+------------------------------------------------------------------------------------------+
; Generated Files                                                                          ;
+------------------------------------------------------------------------------------------+
; /home/redsuser/Ludo/csn_lab04/capt_i2c_temp/pr/simulation/modelsim/capt_i2c_temp.vho     ;
; /home/redsuser/Ludo/csn_lab04/capt_i2c_temp/pr/simulation/modelsim/capt_i2c_temp_vhd.sdo ;
+------------------------------------------------------------------------------------------+


+-----------------------------+
; EDA Netlist Writer Messages ;
+-----------------------------+
Info: *******************************************************************
Info: Running Quartus II 64-Bit EDA Netlist Writer
    Info: Version 13.0.0 Build 156 04/24/2013 SJ Full Version
    Info: Processing started: Fri Jan 19 13:03:33 2018
Info: Command: quartus_eda --read_settings_files=off --write_settings_files=off capt_i2c_temp -c capt_i2c_temp
Info (204018): Generated files "capt_i2c_temp.vho" and "capt_i2c_temp_vhd.sdo" in directory "/home/redsuser/Ludo/csn_lab04/capt_i2c_temp/pr/simulation/modelsim/" for EDA simulation tool
Info: Quartus II 64-Bit EDA Netlist Writer was successful. 0 errors, 0 warnings
    Info: Peak virtual memory: 796 megabytes
    Info: Processing ended: Fri Jan 19 13:03:34 2018
    Info: Elapsed time: 00:00:01
    Info: Total CPU time (on all processors): 00:00:00


